{
  "info": {
    "_postman_id": "e8ad5af2-1db6-4962-b0be-dfd153b5736f",
    "name": "LR1",
    "schema": "https://schema.getpostman.com/json/collection/v2.1.0/collection.json",
    "_exporter_id": "30119643"
  },
  "item": [
    {
      "name": "Todos",
      "request": {
        "method": "GET",
        "header": [],
        "url": {
          "raw": "{{base_url}}/",
          "host": [
            "{{base_url}}"
          ],
          "path": [
            ""
          ]
        }
      },
      "response": []
    },
    {
      "name": "Todos",
      "request": {
        "method": "POST",
        "header": [],
        "body": {
          "mode": "raw",
          "raw": "{\r\n  \"title\": \"Test Todo\",\r\n  \"details\": \"This is a test todo\",\r\n  \"tag\": \"STUDY\"\r\n}\r\n",
          "options": {
            "raw": {
              "language": "json"
            }
          }
        },
        "url": {
          "raw": "{{base_url}}/add",
          "host": [
            "{{base_url}}"
          ],
          "path": [
            "add"
          ]
        }
      },
      "response": []
    },
    {
      "name": "Todo",
      "request": {
        "method": "GET",
        "header": [],
        "url": {
          "raw": "{{base_url}}/edit/{{todo_id}}",
          "host": [
            "{{base_url}}"
          ],
          "path": [
            "edit",
            "{{todo_id}}"
          ]
        }
      },
      "response": []
    },
    {
      "name": "Todo",
      "request": {
        "method": "POST",
        "header": [],
        "url": {
          "raw": "{{base_url}}/edit/{{todo_id}}?completed=true",
          "host": [
            "{{base_url}}"
          ],
          "path": [
            "edit",
            "{{todo_id}}"
          ],
          "query": [
            {
              "key": "completed",
              "value": "true"
            }
          ]
        }
      },
      "response": []
    },
    {
      "name": "Todo Del",
      "request": {
        "method": "POST",
        "header": [],
        "url": {
          "raw": "{{base_url}}/delete/{{todo_id}}",
          "host": [
            "{{base_url}}"
          ],
          "path": [
            "delete",
            "{{todo_id}}"
          ]
        }
      },
      "response": []
    }
  ],
  "variable": [
    {
      "key": "base_url",
      "value": "localhost"
    },
    {
      "key": "todo_id",
      "value": "1"
    }
  ]
}